…
#>              "3220296"                   "79" "2020-11-08T17:23:43Z" 
#>              changeset                    uid                   user 
#>             "93750625"              "1075986"           "py_berrard" 
#> 
#> $stop_count
#> [1] 46
#> 
#> $trkpt_count
#> [1] 946
#> 
#> $trk_km
#> [1] 17.402
#> 
#> $stop_base
#> # A tibble: 46 x 5
#>    id         name                    lat   lon version
#>    <chr>      <chr>                 <dbl> <dbl> <chr>  
#>  1 3163674258 Seichamps Haie Cerlin  48.7  6.27 1      
#>  2 3163519911 Seichamps Église       48.7  6.27 1      
#>  3 966281833  Donon                  48.7  6.27 2      
#>  4 3163208966 Jardin Roussel         48.7  6.27 1      
#>  5 3140811791 Semoir                 48.7  6.26 1      
#>  6 963538950  Collège Goncourt       48.7  6.26 2      
#>  7 3065252842 Blés d'Or              48.7  6.26 2      
#>  8 962186695  Charles de Gaulle      48.7  6.25 3      
#>  9 3414202098 Renaissance            48.7  6.25 2      
#> 10 3138716806 Porte Verte            48.7  6.24 2      
#> # ... with 36 more rows
#> 
#> $trkpt_base
#> # A tibble: 946 x 5
#>    id           lat   lon version d_last
#>    <chr>      <dbl> <dbl> <chr>    <dbl>
#>  1 3163674258  48.7  6.27 1         0   
#>  2 3163674481  48.7  6.27 2         4.16
#>  3 3070509280  48.7  6.27 3         3.74
#>  4 3163674482  48.7  6.27 2         6.68
#>  5 3070509345  48.7  6.27 3         4.95
#>  6 65074447    48.7  6.27 3        12.7 
#>  7 3163674477  48.7  6.27 2        23.3 
#>  8 3163674476  48.7  6.27 1         2.94
#>  9 4720935403  48.7  6.26 1        88.5 
#> 10 4720935406  48.7  6.26 1         5.41
#> # ... with 936 more rows
```
…
